{
    "manifest_version": 3,
    "name": "ContentSpy",
    "description": "Easily generate list of social media's most engaging content",
    "version": "1.0.0",
    "background": {
        "service_worker": "/js/background.js"
    },
    "action": {
        "default_popup": "popup.html"
    },
    "content_scripts": [
        {
            "matches": [
                "<all_urls>"
            ],
            "js": [
                "/js/content.js"
            ]
        }
    ]
}